M48
INCH
T1C0.0157
T2C0.0394
T3C0.0469
T4C0.0827
%
G90
G05
T1
X2.375Y-1.9
X2.375Y-2.4
X2.9Y-2.4
X3.3Y-1.9
X3.3Y-2.4
X3.9Y-1.9
X3.9Y-2.4
X4.375Y-1.9
X4.375Y-2.4
X4.9Y-1.9
X4.9Y-2.4
X5.3Y-1.9
X5.3Y-2.4
X5.9Y-1.9
X5.9Y-2.4
X6.375Y-1.9
X6.375Y-2.4
X6.9Y-1.9
X6.9Y-2.4
T2
X3.0Y-2.0
X3.0Y-2.0984
X3.0Y-2.1969
X3.0Y-2.2953
X4.0Y-2.0
X4.0Y-2.0984
X4.0Y-2.1969
X4.0Y-2.2953
X5.0Y-2.0
X5.0Y-2.0984
X5.0Y-2.1969
X5.0Y-2.2953
X6.0Y-2.0
X6.0Y-2.0984
X6.0Y-2.1969
X6.0Y-2.2953
X7.0Y-2.0
X7.0Y-2.0984
X7.0Y-2.1969
X7.0Y-2.2953
T3
X2.25Y-2.0
X2.25Y-2.1
X2.25Y-2.2
X2.25Y-2.3
X4.2Y-2.0
X4.2Y-2.1
X4.2Y-2.2
X4.2Y-2.3
X6.2Y-2.0
X6.2Y-2.1
X6.2Y-2.2
X6.2Y-2.3
T4
X2.6063Y-1.8917
X2.6063Y-2.4035
X3.6063Y-1.8917
X3.6063Y-2.4035
X4.6063Y-1.8917
X4.6063Y-2.4035
X5.6063Y-1.8917
X5.6063Y-2.4035
X6.6063Y-1.8917
X6.6063Y-2.4035
M30
