%TF.GenerationSoftware,KiCad,Pcbnew,7.0.11*%
%TF.CreationDate,2024-03-07T16:32:17+01:00*%
%TF.ProjectId,endless-pot,656e646c-6573-4732-9d70-6f742e6b6963,rev?*%
%TF.SameCoordinates,Original*%
%TF.FileFunction,Legend,Bot*%
%TF.FilePolarity,Positive*%
%FSLAX46Y46*%
G04 Gerber Fmt 4.6, Leading zero omitted, Abs format (unit mm)*
G04 Created by KiCad (PCBNEW 7.0.11) date 2024-03-07 16:32:17*
%MOMM*%
%LPD*%
G01*
G04 APERTURE LIST*
%ADD10C,0.150000*%
%ADD11C,0.120000*%
G04 APERTURE END LIST*
D10*
X59509819Y-53954761D02*
X59033628Y-53621428D01*
X59509819Y-53383333D02*
X58509819Y-53383333D01*
X58509819Y-53383333D02*
X58509819Y-53764285D01*
X58509819Y-53764285D02*
X58557438Y-53859523D01*
X58557438Y-53859523D02*
X58605057Y-53907142D01*
X58605057Y-53907142D02*
X58700295Y-53954761D01*
X58700295Y-53954761D02*
X58843152Y-53954761D01*
X58843152Y-53954761D02*
X58938390Y-53907142D01*
X58938390Y-53907142D02*
X58986009Y-53859523D01*
X58986009Y-53859523D02*
X59033628Y-53764285D01*
X59033628Y-53764285D02*
X59033628Y-53383333D01*
X58509819Y-54240476D02*
X59509819Y-54573809D01*
X59509819Y-54573809D02*
X58509819Y-54907142D01*
X58843152Y-55669047D02*
X59509819Y-55669047D01*
X58462200Y-55430952D02*
X59176485Y-55192857D01*
X59176485Y-55192857D02*
X59176485Y-55811904D01*
X74534104Y-55561905D02*
X74534104Y-56038095D01*
X74819819Y-55466667D02*
X73819819Y-55800000D01*
X73819819Y-55800000D02*
X74819819Y-56133333D01*
X74296009Y-50871428D02*
X74343628Y-51014285D01*
X74343628Y-51014285D02*
X74391247Y-51061904D01*
X74391247Y-51061904D02*
X74486485Y-51109523D01*
X74486485Y-51109523D02*
X74629342Y-51109523D01*
X74629342Y-51109523D02*
X74724580Y-51061904D01*
X74724580Y-51061904D02*
X74772200Y-51014285D01*
X74772200Y-51014285D02*
X74819819Y-50919047D01*
X74819819Y-50919047D02*
X74819819Y-50538095D01*
X74819819Y-50538095D02*
X73819819Y-50538095D01*
X73819819Y-50538095D02*
X73819819Y-50871428D01*
X73819819Y-50871428D02*
X73867438Y-50966666D01*
X73867438Y-50966666D02*
X73915057Y-51014285D01*
X73915057Y-51014285D02*
X74010295Y-51061904D01*
X74010295Y-51061904D02*
X74105533Y-51061904D01*
X74105533Y-51061904D02*
X74200771Y-51014285D01*
X74200771Y-51014285D02*
X74248390Y-50966666D01*
X74248390Y-50966666D02*
X74296009Y-50871428D01*
X74296009Y-50871428D02*
X74296009Y-50538095D01*
X84554819Y-53954761D02*
X84078628Y-53621428D01*
X84554819Y-53383333D02*
X83554819Y-53383333D01*
X83554819Y-53383333D02*
X83554819Y-53764285D01*
X83554819Y-53764285D02*
X83602438Y-53859523D01*
X83602438Y-53859523D02*
X83650057Y-53907142D01*
X83650057Y-53907142D02*
X83745295Y-53954761D01*
X83745295Y-53954761D02*
X83888152Y-53954761D01*
X83888152Y-53954761D02*
X83983390Y-53907142D01*
X83983390Y-53907142D02*
X84031009Y-53859523D01*
X84031009Y-53859523D02*
X84078628Y-53764285D01*
X84078628Y-53764285D02*
X84078628Y-53383333D01*
X83554819Y-54240476D02*
X84554819Y-54573809D01*
X84554819Y-54573809D02*
X83554819Y-54907142D01*
X83554819Y-55145238D02*
X83554819Y-55764285D01*
X83554819Y-55764285D02*
X83935771Y-55430952D01*
X83935771Y-55430952D02*
X83935771Y-55573809D01*
X83935771Y-55573809D02*
X83983390Y-55669047D01*
X83983390Y-55669047D02*
X84031009Y-55716666D01*
X84031009Y-55716666D02*
X84126247Y-55764285D01*
X84126247Y-55764285D02*
X84364342Y-55764285D01*
X84364342Y-55764285D02*
X84459580Y-55716666D01*
X84459580Y-55716666D02*
X84507200Y-55669047D01*
X84507200Y-55669047D02*
X84554819Y-55573809D01*
X84554819Y-55573809D02*
X84554819Y-55288095D01*
X84554819Y-55288095D02*
X84507200Y-55192857D01*
X84507200Y-55192857D02*
X84459580Y-55145238D01*
X99934104Y-55561905D02*
X99934104Y-56038095D01*
X100219819Y-55466667D02*
X99219819Y-55800000D01*
X99219819Y-55800000D02*
X100219819Y-56133333D01*
X99696009Y-50871428D02*
X99743628Y-51014285D01*
X99743628Y-51014285D02*
X99791247Y-51061904D01*
X99791247Y-51061904D02*
X99886485Y-51109523D01*
X99886485Y-51109523D02*
X100029342Y-51109523D01*
X100029342Y-51109523D02*
X100124580Y-51061904D01*
X100124580Y-51061904D02*
X100172200Y-51014285D01*
X100172200Y-51014285D02*
X100219819Y-50919047D01*
X100219819Y-50919047D02*
X100219819Y-50538095D01*
X100219819Y-50538095D02*
X99219819Y-50538095D01*
X99219819Y-50538095D02*
X99219819Y-50871428D01*
X99219819Y-50871428D02*
X99267438Y-50966666D01*
X99267438Y-50966666D02*
X99315057Y-51014285D01*
X99315057Y-51014285D02*
X99410295Y-51061904D01*
X99410295Y-51061904D02*
X99505533Y-51061904D01*
X99505533Y-51061904D02*
X99600771Y-51014285D01*
X99600771Y-51014285D02*
X99648390Y-50966666D01*
X99648390Y-50966666D02*
X99696009Y-50871428D01*
X99696009Y-50871428D02*
X99696009Y-50538095D01*
X160754819Y-53954761D02*
X160278628Y-53621428D01*
X160754819Y-53383333D02*
X159754819Y-53383333D01*
X159754819Y-53383333D02*
X159754819Y-53764285D01*
X159754819Y-53764285D02*
X159802438Y-53859523D01*
X159802438Y-53859523D02*
X159850057Y-53907142D01*
X159850057Y-53907142D02*
X159945295Y-53954761D01*
X159945295Y-53954761D02*
X160088152Y-53954761D01*
X160088152Y-53954761D02*
X160183390Y-53907142D01*
X160183390Y-53907142D02*
X160231009Y-53859523D01*
X160231009Y-53859523D02*
X160278628Y-53764285D01*
X160278628Y-53764285D02*
X160278628Y-53383333D01*
X159754819Y-54240476D02*
X160754819Y-54573809D01*
X160754819Y-54573809D02*
X159754819Y-54907142D01*
X159754819Y-55430952D02*
X159754819Y-55526190D01*
X159754819Y-55526190D02*
X159802438Y-55621428D01*
X159802438Y-55621428D02*
X159850057Y-55669047D01*
X159850057Y-55669047D02*
X159945295Y-55716666D01*
X159945295Y-55716666D02*
X160135771Y-55764285D01*
X160135771Y-55764285D02*
X160373866Y-55764285D01*
X160373866Y-55764285D02*
X160564342Y-55716666D01*
X160564342Y-55716666D02*
X160659580Y-55669047D01*
X160659580Y-55669047D02*
X160707200Y-55621428D01*
X160707200Y-55621428D02*
X160754819Y-55526190D01*
X160754819Y-55526190D02*
X160754819Y-55430952D01*
X160754819Y-55430952D02*
X160707200Y-55335714D01*
X160707200Y-55335714D02*
X160659580Y-55288095D01*
X160659580Y-55288095D02*
X160564342Y-55240476D01*
X160564342Y-55240476D02*
X160373866Y-55192857D01*
X160373866Y-55192857D02*
X160135771Y-55192857D01*
X160135771Y-55192857D02*
X159945295Y-55240476D01*
X159945295Y-55240476D02*
X159850057Y-55288095D01*
X159850057Y-55288095D02*
X159802438Y-55335714D01*
X159802438Y-55335714D02*
X159754819Y-55430952D01*
X175896009Y-50871428D02*
X175943628Y-51014285D01*
X175943628Y-51014285D02*
X175991247Y-51061904D01*
X175991247Y-51061904D02*
X176086485Y-51109523D01*
X176086485Y-51109523D02*
X176229342Y-51109523D01*
X176229342Y-51109523D02*
X176324580Y-51061904D01*
X176324580Y-51061904D02*
X176372200Y-51014285D01*
X176372200Y-51014285D02*
X176419819Y-50919047D01*
X176419819Y-50919047D02*
X176419819Y-50538095D01*
X176419819Y-50538095D02*
X175419819Y-50538095D01*
X175419819Y-50538095D02*
X175419819Y-50871428D01*
X175419819Y-50871428D02*
X175467438Y-50966666D01*
X175467438Y-50966666D02*
X175515057Y-51014285D01*
X175515057Y-51014285D02*
X175610295Y-51061904D01*
X175610295Y-51061904D02*
X175705533Y-51061904D01*
X175705533Y-51061904D02*
X175800771Y-51014285D01*
X175800771Y-51014285D02*
X175848390Y-50966666D01*
X175848390Y-50966666D02*
X175896009Y-50871428D01*
X175896009Y-50871428D02*
X175896009Y-50538095D01*
X176134104Y-55561905D02*
X176134104Y-56038095D01*
X176419819Y-55466667D02*
X175419819Y-55800000D01*
X175419819Y-55800000D02*
X176419819Y-56133333D01*
X109954819Y-53954761D02*
X109478628Y-53621428D01*
X109954819Y-53383333D02*
X108954819Y-53383333D01*
X108954819Y-53383333D02*
X108954819Y-53764285D01*
X108954819Y-53764285D02*
X109002438Y-53859523D01*
X109002438Y-53859523D02*
X109050057Y-53907142D01*
X109050057Y-53907142D02*
X109145295Y-53954761D01*
X109145295Y-53954761D02*
X109288152Y-53954761D01*
X109288152Y-53954761D02*
X109383390Y-53907142D01*
X109383390Y-53907142D02*
X109431009Y-53859523D01*
X109431009Y-53859523D02*
X109478628Y-53764285D01*
X109478628Y-53764285D02*
X109478628Y-53383333D01*
X108954819Y-54240476D02*
X109954819Y-54573809D01*
X109954819Y-54573809D02*
X108954819Y-54907142D01*
X109050057Y-55192857D02*
X109002438Y-55240476D01*
X109002438Y-55240476D02*
X108954819Y-55335714D01*
X108954819Y-55335714D02*
X108954819Y-55573809D01*
X108954819Y-55573809D02*
X109002438Y-55669047D01*
X109002438Y-55669047D02*
X109050057Y-55716666D01*
X109050057Y-55716666D02*
X109145295Y-55764285D01*
X109145295Y-55764285D02*
X109240533Y-55764285D01*
X109240533Y-55764285D02*
X109383390Y-55716666D01*
X109383390Y-55716666D02*
X109954819Y-55145238D01*
X109954819Y-55145238D02*
X109954819Y-55764285D01*
X125096009Y-50871428D02*
X125143628Y-51014285D01*
X125143628Y-51014285D02*
X125191247Y-51061904D01*
X125191247Y-51061904D02*
X125286485Y-51109523D01*
X125286485Y-51109523D02*
X125429342Y-51109523D01*
X125429342Y-51109523D02*
X125524580Y-51061904D01*
X125524580Y-51061904D02*
X125572200Y-51014285D01*
X125572200Y-51014285D02*
X125619819Y-50919047D01*
X125619819Y-50919047D02*
X125619819Y-50538095D01*
X125619819Y-50538095D02*
X124619819Y-50538095D01*
X124619819Y-50538095D02*
X124619819Y-50871428D01*
X124619819Y-50871428D02*
X124667438Y-50966666D01*
X124667438Y-50966666D02*
X124715057Y-51014285D01*
X124715057Y-51014285D02*
X124810295Y-51061904D01*
X124810295Y-51061904D02*
X124905533Y-51061904D01*
X124905533Y-51061904D02*
X125000771Y-51014285D01*
X125000771Y-51014285D02*
X125048390Y-50966666D01*
X125048390Y-50966666D02*
X125096009Y-50871428D01*
X125096009Y-50871428D02*
X125096009Y-50538095D01*
X125334104Y-55561905D02*
X125334104Y-56038095D01*
X125619819Y-55466667D02*
X124619819Y-55800000D01*
X124619819Y-55800000D02*
X125619819Y-56133333D01*
X135354819Y-53954761D02*
X134878628Y-53621428D01*
X135354819Y-53383333D02*
X134354819Y-53383333D01*
X134354819Y-53383333D02*
X134354819Y-53764285D01*
X134354819Y-53764285D02*
X134402438Y-53859523D01*
X134402438Y-53859523D02*
X134450057Y-53907142D01*
X134450057Y-53907142D02*
X134545295Y-53954761D01*
X134545295Y-53954761D02*
X134688152Y-53954761D01*
X134688152Y-53954761D02*
X134783390Y-53907142D01*
X134783390Y-53907142D02*
X134831009Y-53859523D01*
X134831009Y-53859523D02*
X134878628Y-53764285D01*
X134878628Y-53764285D02*
X134878628Y-53383333D01*
X134354819Y-54240476D02*
X135354819Y-54573809D01*
X135354819Y-54573809D02*
X134354819Y-54907142D01*
X135354819Y-55764285D02*
X135354819Y-55192857D01*
X135354819Y-55478571D02*
X134354819Y-55478571D01*
X134354819Y-55478571D02*
X134497676Y-55383333D01*
X134497676Y-55383333D02*
X134592914Y-55288095D01*
X134592914Y-55288095D02*
X134640533Y-55192857D01*
X150734104Y-55561905D02*
X150734104Y-56038095D01*
X151019819Y-55466667D02*
X150019819Y-55800000D01*
X150019819Y-55800000D02*
X151019819Y-56133333D01*
X150496009Y-50871428D02*
X150543628Y-51014285D01*
X150543628Y-51014285D02*
X150591247Y-51061904D01*
X150591247Y-51061904D02*
X150686485Y-51109523D01*
X150686485Y-51109523D02*
X150829342Y-51109523D01*
X150829342Y-51109523D02*
X150924580Y-51061904D01*
X150924580Y-51061904D02*
X150972200Y-51014285D01*
X150972200Y-51014285D02*
X151019819Y-50919047D01*
X151019819Y-50919047D02*
X151019819Y-50538095D01*
X151019819Y-50538095D02*
X150019819Y-50538095D01*
X150019819Y-50538095D02*
X150019819Y-50871428D01*
X150019819Y-50871428D02*
X150067438Y-50966666D01*
X150067438Y-50966666D02*
X150115057Y-51014285D01*
X150115057Y-51014285D02*
X150210295Y-51061904D01*
X150210295Y-51061904D02*
X150305533Y-51061904D01*
X150305533Y-51061904D02*
X150400771Y-51014285D01*
X150400771Y-51014285D02*
X150448390Y-50966666D01*
X150448390Y-50966666D02*
X150496009Y-50871428D01*
X150496009Y-50871428D02*
X150496009Y-50538095D01*
D11*
%TO.C,RV4*%
X71200000Y-48550000D02*
X71200000Y-49050000D01*
X68000000Y-48550000D02*
X71200000Y-48550000D01*
X64400000Y-48550000D02*
X61200000Y-48550000D01*
X61200000Y-48550000D02*
X61200000Y-49050000D01*
X71200000Y-49050000D02*
X74950000Y-49050000D01*
X61200000Y-49050000D02*
X60000000Y-49050000D01*
X59500000Y-49550000D02*
X59500000Y-59550000D01*
X71200000Y-60050000D02*
X74950000Y-60050000D01*
X61200000Y-60050000D02*
X61200000Y-60550000D01*
X60000000Y-60050000D02*
X61200000Y-60050000D01*
X71200000Y-60550000D02*
X71200000Y-60050000D01*
X68000000Y-60550000D02*
X71200000Y-60550000D01*
X61200000Y-60550000D02*
X64400000Y-60550000D01*
X75450000Y-49550000D02*
G75*
G03*
X74950000Y-49050000I-500001J-1D01*
G01*
X60000000Y-49050000D02*
G75*
G03*
X59500000Y-49550000I1J-500001D01*
G01*
X74950000Y-60050000D02*
G75*
G03*
X75450000Y-59550000I0J500000D01*
G01*
X59500000Y-59550000D02*
G75*
G03*
X60000000Y-60050000I500000J0D01*
G01*
%TO.C,RV3*%
X96600000Y-48550000D02*
X96600000Y-49050000D01*
X93400000Y-48550000D02*
X96600000Y-48550000D01*
X89800000Y-48550000D02*
X86600000Y-48550000D01*
X86600000Y-48550000D02*
X86600000Y-49050000D01*
X96600000Y-49050000D02*
X100350000Y-49050000D01*
X86600000Y-49050000D02*
X85400000Y-49050000D01*
X84900000Y-49550000D02*
X84900000Y-59550000D01*
X96600000Y-60050000D02*
X100350000Y-60050000D01*
X86600000Y-60050000D02*
X86600000Y-60550000D01*
X85400000Y-60050000D02*
X86600000Y-60050000D01*
X96600000Y-60550000D02*
X96600000Y-60050000D01*
X93400000Y-60550000D02*
X96600000Y-60550000D01*
X86600000Y-60550000D02*
X89800000Y-60550000D01*
X100850000Y-49550000D02*
G75*
G03*
X100350000Y-49050000I-500001J-1D01*
G01*
X85400000Y-49050000D02*
G75*
G03*
X84900000Y-49550000I1J-500001D01*
G01*
X100350000Y-60050000D02*
G75*
G03*
X100850000Y-59550000I0J500000D01*
G01*
X84900000Y-59550000D02*
G75*
G03*
X85400000Y-60050000I500000J0D01*
G01*
%TO.C,RV0*%
X172800000Y-48550000D02*
X172800000Y-49050000D01*
X169600000Y-48550000D02*
X172800000Y-48550000D01*
X166000000Y-48550000D02*
X162800000Y-48550000D01*
X162800000Y-48550000D02*
X162800000Y-49050000D01*
X172800000Y-49050000D02*
X176550000Y-49050000D01*
X162800000Y-49050000D02*
X161600000Y-49050000D01*
X161100000Y-49550000D02*
X161100000Y-59550000D01*
X172800000Y-60050000D02*
X176550000Y-60050000D01*
X162800000Y-60050000D02*
X162800000Y-60550000D01*
X161600000Y-60050000D02*
X162800000Y-60050000D01*
X172800000Y-60550000D02*
X172800000Y-60050000D01*
X169600000Y-60550000D02*
X172800000Y-60550000D01*
X162800000Y-60550000D02*
X166000000Y-60550000D01*
X177050000Y-49550000D02*
G75*
G03*
X176550000Y-49050000I-500001J-1D01*
G01*
X161600000Y-49050000D02*
G75*
G03*
X161100000Y-49550000I1J-500001D01*
G01*
X176550000Y-60050000D02*
G75*
G03*
X177050000Y-59550000I0J500000D01*
G01*
X161100000Y-59550000D02*
G75*
G03*
X161600000Y-60050000I500000J0D01*
G01*
%TO.C,RV2*%
X122000000Y-48550000D02*
X122000000Y-49050000D01*
X118800000Y-48550000D02*
X122000000Y-48550000D01*
X115200000Y-48550000D02*
X112000000Y-48550000D01*
X112000000Y-48550000D02*
X112000000Y-49050000D01*
X122000000Y-49050000D02*
X125750000Y-49050000D01*
X112000000Y-49050000D02*
X110800000Y-49050000D01*
X110300000Y-49550000D02*
X110300000Y-59550000D01*
X122000000Y-60050000D02*
X125750000Y-60050000D01*
X112000000Y-60050000D02*
X112000000Y-60550000D01*
X110800000Y-60050000D02*
X112000000Y-60050000D01*
X122000000Y-60550000D02*
X122000000Y-60050000D01*
X118800000Y-60550000D02*
X122000000Y-60550000D01*
X112000000Y-60550000D02*
X115200000Y-60550000D01*
X126250000Y-49550000D02*
G75*
G03*
X125750000Y-49050000I-500001J-1D01*
G01*
X110800000Y-49050000D02*
G75*
G03*
X110300000Y-49550000I1J-500001D01*
G01*
X125750000Y-60050000D02*
G75*
G03*
X126250000Y-59550000I0J500000D01*
G01*
X110300000Y-59550000D02*
G75*
G03*
X110800000Y-60050000I500000J0D01*
G01*
%TO.C,RV1*%
X147400000Y-48550000D02*
X147400000Y-49050000D01*
X144200000Y-48550000D02*
X147400000Y-48550000D01*
X140600000Y-48550000D02*
X137400000Y-48550000D01*
X137400000Y-48550000D02*
X137400000Y-49050000D01*
X147400000Y-49050000D02*
X151150000Y-49050000D01*
X137400000Y-49050000D02*
X136200000Y-49050000D01*
X135700000Y-49550000D02*
X135700000Y-59550000D01*
X147400000Y-60050000D02*
X151150000Y-60050000D01*
X137400000Y-60050000D02*
X137400000Y-60550000D01*
X136200000Y-60050000D02*
X137400000Y-60050000D01*
X147400000Y-60550000D02*
X147400000Y-60050000D01*
X144200000Y-60550000D02*
X147400000Y-60550000D01*
X137400000Y-60550000D02*
X140600000Y-60550000D01*
X151650000Y-49550000D02*
G75*
G03*
X151150000Y-49050000I-500001J-1D01*
G01*
X136200000Y-49050000D02*
G75*
G03*
X135700000Y-49550000I1J-500001D01*
G01*
X151150000Y-60050000D02*
G75*
G03*
X151650000Y-59550000I0J500000D01*
G01*
X135700000Y-59550000D02*
G75*
G03*
X136200000Y-60050000I500000J0D01*
G01*
%TD*%
M02*
