%TF.GenerationSoftware,KiCad,Pcbnew,7.0.11*%
%TF.CreationDate,2024-03-07T16:32:17+01:00*%
%TF.ProjectId,endless-pot,656e646c-6573-4732-9d70-6f742e6b6963,rev?*%
%TF.SameCoordinates,Original*%
%TF.FileFunction,Soldermask,Top*%
%TF.FilePolarity,Negative*%
%FSLAX46Y46*%
G04 Gerber Fmt 4.6, Leading zero omitted, Abs format (unit mm)*
G04 Created by KiCad (PCBNEW 7.0.11) date 2024-03-07 16:32:17*
%MOMM*%
%LPD*%
G01*
G04 APERTURE LIST*
G04 Aperture macros list*
%AMRoundRect*
0 Rectangle with rounded corners*
0 $1 Rounding radius*
0 $2 $3 $4 $5 $6 $7 $8 $9 X,Y pos of 4 corners*
0 Add a 4 corners polygon primitive as box body*
4,1,4,$2,$3,$4,$5,$6,$7,$8,$9,$2,$3,0*
0 Add four circle primitives for the rounded corners*
1,1,$1+$1,$2,$3*
1,1,$1+$1,$4,$5*
1,1,$1+$1,$6,$7*
1,1,$1+$1,$8,$9*
0 Add four rect primitives between the rounded corners*
20,1,$1+$1,$2,$3,$4,$5,0*
20,1,$1+$1,$4,$5,$6,$7,0*
20,1,$1+$1,$6,$7,$8,$9,0*
20,1,$1+$1,$8,$9,$2,$3,0*%
G04 Aperture macros list end*
%ADD10RoundRect,0.250000X-0.845000X0.620000X-0.845000X-0.620000X0.845000X-0.620000X0.845000X0.620000X0*%
%ADD11O,2.190000X1.740000*%
%ADD12RoundRect,0.250000X0.845000X-0.620000X0.845000X0.620000X-0.845000X0.620000X-0.845000X-0.620000X0*%
%ADD13C,3.100000*%
%ADD14R,1.800000X1.800000*%
%ADD15C,1.800000*%
G04 APERTURE END LIST*
D10*
%TO.C,J3*%
X57150000Y-50800000D03*
D11*
X57150000Y-53340000D03*
X57150000Y-55880000D03*
X57150000Y-58420000D03*
%TD*%
D12*
%TO.C,J2*%
X106680000Y-58420000D03*
D11*
X106680000Y-55880000D03*
X106680000Y-53340000D03*
X106680000Y-50800000D03*
%TD*%
D12*
%TO.C,J1*%
X157480000Y-58420000D03*
D11*
X157480000Y-55880000D03*
X157480000Y-53340000D03*
X157480000Y-50800000D03*
%TD*%
D13*
%TO.C,RV4*%
X66200000Y-48050000D03*
X66200000Y-61050000D03*
D14*
X76200000Y-53300000D03*
D15*
X76200000Y-55800000D03*
X76200000Y-58300000D03*
X76200000Y-50800000D03*
%TD*%
D13*
%TO.C,RV3*%
X91600000Y-48050000D03*
X91600000Y-61050000D03*
D14*
X101600000Y-53300000D03*
D15*
X101600000Y-55800000D03*
X101600000Y-58300000D03*
X101600000Y-50800000D03*
%TD*%
D13*
%TO.C,RV0*%
X167800000Y-48050000D03*
X167800000Y-61050000D03*
D14*
X177800000Y-53300000D03*
D15*
X177800000Y-55800000D03*
X177800000Y-58300000D03*
X177800000Y-50800000D03*
%TD*%
D13*
%TO.C,RV2*%
X117000000Y-48050000D03*
X117000000Y-61050000D03*
D14*
X127000000Y-53300000D03*
D15*
X127000000Y-55800000D03*
X127000000Y-58300000D03*
X127000000Y-50800000D03*
%TD*%
D13*
%TO.C,RV1*%
X142400000Y-48050000D03*
X142400000Y-61050000D03*
D14*
X152400000Y-53300000D03*
D15*
X152400000Y-55800000D03*
X152400000Y-58300000D03*
X152400000Y-50800000D03*
%TD*%
M02*
