(kicad_sch
	(version 20231120)
	(generator "eeschema")
	(generator_version "8.0")
	(uuid "9a433a0f-766c-4331-bf35-682b954f8034")
	(paper "A4")
	(title_block
		(title "Pédale Vite v2 — Auxiliary boards")
		(date "2019-10-22")
		(company "Laurent DE SORAS")
		(comment 1 "Licensed under WTFPL v2 / CC0")
		(comment 4 "LED board")
	)
	(lib_symbols
		(symbol "Connector:Conn_01x04_Pin"
			(pin_names
				(offset 1.016) hide)
			(exclude_from_sim no)
			(in_bom yes)
			(on_board yes)
			(property "Reference" "J"
				(at 0 5.08 0)
				(effects
					(font
						(size 1.27 1.27)
					)
				)
			)
			(property "Value" "Conn_01x04_Pin"
				(at 0 -7.62 0)
				(effects
					(font
						(size 1.27 1.27)
					)
				)
			)
			(property "Footprint" ""
				(at 0 0 0)
				(effects
					(font
						(size 1.27 1.27)
					)
					(hide yes)
				)
			)
			(property "Datasheet" "~"
				(at 0 0 0)
				(effects
					(font
						(size 1.27 1.27)
					)
					(hide yes)
				)
			)
			(property "Description" "Generic connector, single row, 01x04, script generated"
				(at 0 0 0)
				(effects
					(font
						(size 1.27 1.27)
					)
					(hide yes)
				)
			)
			(property "ki_locked" ""
				(at 0 0 0)
				(effects
					(font
						(size 1.27 1.27)
					)
				)
			)
			(property "ki_keywords" "connector"
				(at 0 0 0)
				(effects
					(font
						(size 1.27 1.27)
					)
					(hide yes)
				)
			)
			(property "ki_fp_filters" "Connector*:*_1x??_*"
				(at 0 0 0)
				(effects
					(font
						(size 1.27 1.27)
					)
					(hide yes)
				)
			)
			(symbol "Conn_01x04_Pin_1_1"
				(polyline
					(pts
						(xy 1.27 -5.08) (xy 0.8636 -5.08)
					)
					(stroke
						(width 0.1524)
						(type default)
					)
					(fill
						(type none)
					)
				)
				(polyline
					(pts
						(xy 1.27 -2.54) (xy 0.8636 -2.54)
					)
					(stroke
						(width 0.1524)
						(type default)
					)
					(fill
						(type none)
					)
				)
				(polyline
					(pts
						(xy 1.27 0) (xy 0.8636 0)
					)
					(stroke
						(width 0.1524)
						(type default)
					)
					(fill
						(type none)
					)
				)
				(polyline
					(pts
						(xy 1.27 2.54) (xy 0.8636 2.54)
					)
					(stroke
						(width 0.1524)
						(type default)
					)
					(fill
						(type none)
					)
				)
				(rectangle
					(start 0.8636 -4.953)
					(end 0 -5.207)
					(stroke
						(width 0.1524)
						(type default)
					)
					(fill
						(type outline)
					)
				)
				(rectangle
					(start 0.8636 -2.413)
					(end 0 -2.667)
					(stroke
						(width 0.1524)
						(type default)
					)
					(fill
						(type outline)
					)
				)
				(rectangle
					(start 0.8636 0.127)
					(end 0 -0.127)
					(stroke
						(width 0.1524)
						(type default)
					)
					(fill
						(type outline)
					)
				)
				(rectangle
					(start 0.8636 2.667)
					(end 0 2.413)
					(stroke
						(width 0.1524)
						(type default)
					)
					(fill
						(type outline)
					)
				)
				(pin passive line
					(at 5.08 2.54 180)
					(length 3.81)
					(name "Pin_1"
						(effects
							(font
								(size 1.27 1.27)
							)
						)
					)
					(number "1"
						(effects
							(font
								(size 1.27 1.27)
							)
						)
					)
				)
				(pin passive line
					(at 5.08 0 180)
					(length 3.81)
					(name "Pin_2"
						(effects
							(font
								(size 1.27 1.27)
							)
						)
					)
					(number "2"
						(effects
							(font
								(size 1.27 1.27)
							)
						)
					)
				)
				(pin passive line
					(at 5.08 -2.54 180)
					(length 3.81)
					(name "Pin_3"
						(effects
							(font
								(size 1.27 1.27)
							)
						)
					)
					(number "3"
						(effects
							(font
								(size 1.27 1.27)
							)
						)
					)
				)
				(pin passive line
					(at 5.08 -5.08 180)
					(length 3.81)
					(name "Pin_4"
						(effects
							(font
								(size 1.27 1.27)
							)
						)
					)
					(number "4"
						(effects
							(font
								(size 1.27 1.27)
							)
						)
					)
				)
			)
		)
		(symbol "Device:LED_Filled"
			(pin_numbers hide)
			(pin_names
				(offset 1.016) hide)
			(exclude_from_sim no)
			(in_bom yes)
			(on_board yes)
			(property "Reference" "D"
				(at 0 2.54 0)
				(effects
					(font
						(size 1.27 1.27)
					)
				)
			)
			(property "Value" "LED_Filled"
				(at 0 -2.54 0)
				(effects
					(font
						(size 1.27 1.27)
					)
				)
			)
			(property "Footprint" ""
				(at 0 0 0)
				(effects
					(font
						(size 1.27 1.27)
					)
					(hide yes)
				)
			)
			(property "Datasheet" "~"
				(at 0 0 0)
				(effects
					(font
						(size 1.27 1.27)
					)
					(hide yes)
				)
			)
			(property "Description" "Light emitting diode, filled shape"
				(at 0 0 0)
				(effects
					(font
						(size 1.27 1.27)
					)
					(hide yes)
				)
			)
			(property "ki_keywords" "LED diode"
				(at 0 0 0)
				(effects
					(font
						(size 1.27 1.27)
					)
					(hide yes)
				)
			)
			(property "ki_fp_filters" "LED* LED_SMD:* LED_THT:*"
				(at 0 0 0)
				(effects
					(font
						(size 1.27 1.27)
					)
					(hide yes)
				)
			)
			(symbol "LED_Filled_0_1"
				(polyline
					(pts
						(xy -1.27 -1.27) (xy -1.27 1.27)
					)
					(stroke
						(width 0.254)
						(type default)
					)
					(fill
						(type none)
					)
				)
				(polyline
					(pts
						(xy -1.27 0) (xy 1.27 0)
					)
					(stroke
						(width 0)
						(type default)
					)
					(fill
						(type none)
					)
				)
				(polyline
					(pts
						(xy 1.27 -1.27) (xy 1.27 1.27) (xy -1.27 0) (xy 1.27 -1.27)
					)
					(stroke
						(width 0.254)
						(type default)
					)
					(fill
						(type outline)
					)
				)
				(polyline
					(pts
						(xy -3.048 -0.762) (xy -4.572 -2.286) (xy -3.81 -2.286) (xy -4.572 -2.286) (xy -4.572 -1.524)
					)
					(stroke
						(width 0)
						(type default)
					)
					(fill
						(type none)
					)
				)
				(polyline
					(pts
						(xy -1.778 -0.762) (xy -3.302 -2.286) (xy -2.54 -2.286) (xy -3.302 -2.286) (xy -3.302 -1.524)
					)
					(stroke
						(width 0)
						(type default)
					)
					(fill
						(type none)
					)
				)
			)
			(symbol "LED_Filled_1_1"
				(pin passive line
					(at -3.81 0 0)
					(length 2.54)
					(name "K"
						(effects
							(font
								(size 1.27 1.27)
							)
						)
					)
					(number "1"
						(effects
							(font
								(size 1.27 1.27)
							)
						)
					)
				)
				(pin passive line
					(at 3.81 0 180)
					(length 2.54)
					(name "A"
						(effects
							(font
								(size 1.27 1.27)
							)
						)
					)
					(number "2"
						(effects
							(font
								(size 1.27 1.27)
							)
						)
					)
				)
			)
		)
		(symbol "Mechanical:MountingHole"
			(pin_names
				(offset 1.016)
			)
			(exclude_from_sim no)
			(in_bom yes)
			(on_board yes)
			(property "Reference" "H"
				(at 0 5.08 0)
				(effects
					(font
						(size 1.27 1.27)
					)
				)
			)
			(property "Value" "MountingHole"
				(at 0 3.175 0)
				(effects
					(font
						(size 1.27 1.27)
					)
				)
			)
			(property "Footprint" ""
				(at 0 0 0)
				(effects
					(font
						(size 1.27 1.27)
					)
					(hide yes)
				)
			)
			(property "Datasheet" "~"
				(at 0 0 0)
				(effects
					(font
						(size 1.27 1.27)
					)
					(hide yes)
				)
			)
			(property "Description" "Mounting Hole without connection"
				(at 0 0 0)
				(effects
					(font
						(size 1.27 1.27)
					)
					(hide yes)
				)
			)
			(property "ki_keywords" "mounting hole"
				(at 0 0 0)
				(effects
					(font
						(size 1.27 1.27)
					)
					(hide yes)
				)
			)
			(property "ki_fp_filters" "MountingHole*"
				(at 0 0 0)
				(effects
					(font
						(size 1.27 1.27)
					)
					(hide yes)
				)
			)
			(symbol "MountingHole_0_1"
				(circle
					(center 0 0)
					(radius 1.27)
					(stroke
						(width 1.27)
						(type default)
					)
					(fill
						(type none)
					)
				)
			)
		)
	)
	(junction
		(at 104.14 55.88)
		(diameter 0)
		(color 0 0 0 0)
		(uuid "1fce72cf-e22b-4b88-9f3c-78ae6e51d843")
	)
	(junction
		(at 104.14 45.72)
		(diameter 0)
		(color 0 0 0 0)
		(uuid "474b9c08-f27d-4575-a70a-b46ef84c8a62")
	)
	(wire
		(pts
			(xy 134.62 43.18) (xy 132.08 43.18)
		)
		(stroke
			(width 0)
			(type default)
		)
		(uuid "01ba4546-bc9e-4372-a5a5-88da8e0df8ab")
	)
	(wire
		(pts
			(xy 132.08 63.5) (xy 104.14 63.5)
		)
		(stroke
			(width 0)
			(type default)
		)
		(uuid "18dd5408-2f05-4dcc-a641-148f18a9a673")
	)
	(wire
		(pts
			(xy 127 40.64) (xy 134.62 40.64)
		)
		(stroke
			(width 0)
			(type default)
		)
		(uuid "25fc1ff8-331d-4d17-bddb-853a05535ceb")
	)
	(wire
		(pts
			(xy 127 55.88) (xy 127 40.64)
		)
		(stroke
			(width 0)
			(type default)
		)
		(uuid "33e2015b-411f-4f29-950b-92974f00eff1")
	)
	(wire
		(pts
			(xy 104.14 63.5) (xy 104.14 55.88)
		)
		(stroke
			(width 0)
			(type default)
		)
		(uuid "52cf702c-a008-40b2-84f5-a17dd0e0ca1c")
	)
	(wire
		(pts
			(xy 104.14 45.72) (xy 104.14 35.56)
		)
		(stroke
			(width 0)
			(type default)
		)
		(uuid "5d56912d-b0ab-4576-954c-8038755f98f1")
	)
	(wire
		(pts
			(xy 104.14 55.88) (xy 109.22 55.88)
		)
		(stroke
			(width 0)
			(type default)
		)
		(uuid "6f4e631e-a257-4ca6-ab24-95183f7b4492")
	)
	(wire
		(pts
			(xy 121.92 45.72) (xy 121.92 38.1)
		)
		(stroke
			(width 0)
			(type default)
		)
		(uuid "7148b525-24d2-4fd0-a5e9-08df9da79458")
	)
	(wire
		(pts
			(xy 116.84 45.72) (xy 121.92 45.72)
		)
		(stroke
			(width 0)
			(type default)
		)
		(uuid "aea0a85b-4c25-4031-a073-52a27497bb93")
	)
	(wire
		(pts
			(xy 116.84 35.56) (xy 134.62 35.56)
		)
		(stroke
			(width 0)
			(type default)
		)
		(uuid "aecc79f1-796e-45a4-86e0-bfd3383bb31c")
	)
	(wire
		(pts
			(xy 121.92 38.1) (xy 134.62 38.1)
		)
		(stroke
			(width 0)
			(type default)
		)
		(uuid "c475e457-db65-419e-b338-856cbb04bf0b")
	)
	(wire
		(pts
			(xy 104.14 35.56) (xy 109.22 35.56)
		)
		(stroke
			(width 0)
			(type default)
		)
		(uuid "c61f073c-076e-4378-b2cb-3650e640a861")
	)
	(wire
		(pts
			(xy 132.08 43.18) (xy 132.08 63.5)
		)
		(stroke
			(width 0)
			(type default)
		)
		(uuid "d9a76ad4-0d91-41b7-9896-72f27bf5fd98")
	)
	(wire
		(pts
			(xy 116.84 55.88) (xy 127 55.88)
		)
		(stroke
			(width 0)
			(type default)
		)
		(uuid "da8b25bc-c5f4-4496-8652-207c8eee8e50")
	)
	(wire
		(pts
			(xy 104.14 55.88) (xy 104.14 45.72)
		)
		(stroke
			(width 0)
			(type default)
		)
		(uuid "e3f679b6-5c5e-4ea3-84f1-038307cbf07d")
	)
	(wire
		(pts
			(xy 104.14 45.72) (xy 109.22 45.72)
		)
		(stroke
			(width 0)
			(type default)
		)
		(uuid "f3a6b616-bd30-468e-a60c-ec2c78b0a48d")
	)
	(symbol
		(lib_id "Device:LED_Filled")
		(at 113.03 35.56 0)
		(mirror y)
		(unit 1)
		(exclude_from_sim no)
		(in_bom yes)
		(on_board yes)
		(dnp no)
		(uuid "00000000-0000-0000-0000-00005d8a5bf4")
		(property "Reference" "D100"
			(at 113.03 33.02 0)
			(effects
				(font
					(size 1.27 1.27)
				)
			)
		)
		(property "Value" "0 RED"
			(at 113.03 38.1 0)
			(effects
				(font
					(size 1.27 1.27)
				)
			)
		)
		(property "Footprint" "LED_THT:LED_D5.0mm"
			(at 113.03 35.56 0)
			(effects
				(font
					(size 1.27 1.27)
				)
				(hide yes)
			)
		)
		(property "Datasheet" "~"
			(at 113.03 35.56 0)
			(effects
				(font
					(size 1.27 1.27)
				)
				(hide yes)
			)
		)
		(property "Description" ""
			(at 113.03 35.56 0)
			(effects
				(font
					(size 1.27 1.27)
				)
				(hide yes)
			)
		)
		(pin "1"
			(uuid "b6c13a9d-22ea-497a-9bce-6322417c896b")
		)
		(pin "2"
			(uuid "443f6848-ed53-4265-816e-ac97ab5b747e")
		)
		(instances
			(project "misc-boards"
				(path "/5f58c02c-5144-4740-88b6-2b6add1f316a/00000000-0000-0000-0000-00005d89da36"
					(reference "D100")
					(unit 1)
				)
			)
		)
	)
	(symbol
		(lib_id "Device:LED_Filled")
		(at 113.03 45.72 0)
		(mirror y)
		(unit 1)
		(exclude_from_sim no)
		(in_bom yes)
		(on_board yes)
		(dnp no)
		(uuid "00000000-0000-0000-0000-00005d8a5c38")
		(property "Reference" "D101"
			(at 113.03 43.18 0)
			(effects
				(font
					(size 1.27 1.27)
				)
			)
		)
		(property "Value" "1 GREEN"
			(at 113.03 48.26 0)
			(effects
				(font
					(size 1.27 1.27)
				)
			)
		)
		(property "Footprint" "LED_THT:LED_D5.0mm"
			(at 113.03 45.72 0)
			(effects
				(font
					(size 1.27 1.27)
				)
				(hide yes)
			)
		)
		(property "Datasheet" "~"
			(at 113.03 45.72 0)
			(effects
				(font
					(size 1.27 1.27)
				)
				(hide yes)
			)
		)
		(property "Description" ""
			(at 113.03 45.72 0)
			(effects
				(font
					(size 1.27 1.27)
				)
				(hide yes)
			)
		)
		(pin "1"
			(uuid "ccd8375e-4514-4085-b073-9091b5b7d131")
		)
		(pin "2"
			(uuid "7981c0ba-a5a0-4ab9-a2ee-681c264b45da")
		)
		(instances
			(project "misc-boards"
				(path "/5f58c02c-5144-4740-88b6-2b6add1f316a/00000000-0000-0000-0000-00005d89da36"
					(reference "D101")
					(unit 1)
				)
			)
		)
	)
	(symbol
		(lib_id "Device:LED_Filled")
		(at 113.03 55.88 0)
		(mirror y)
		(unit 1)
		(exclude_from_sim no)
		(in_bom yes)
		(on_board yes)
		(dnp no)
		(uuid "00000000-0000-0000-0000-00005d8a5c5a")
		(property "Reference" "D102"
			(at 113.03 53.34 0)
			(effects
				(font
					(size 1.27 1.27)
				)
			)
		)
		(property "Value" "2 RED"
			(at 113.03 58.42 0)
			(effects
				(font
					(size 1.27 1.27)
				)
			)
		)
		(property "Footprint" "LED_THT:LED_D5.0mm"
			(at 113.03 55.88 0)
			(effects
				(font
					(size 1.27 1.27)
				)
				(hide yes)
			)
		)
		(property "Datasheet" "~"
			(at 113.03 55.88 0)
			(effects
				(font
					(size 1.27 1.27)
				)
				(hide yes)
			)
		)
		(property "Description" ""
			(at 113.03 55.88 0)
			(effects
				(font
					(size 1.27 1.27)
				)
				(hide yes)
			)
		)
		(pin "1"
			(uuid "dacf38fb-2e4e-471a-b4cf-30837754dff7")
		)
		(pin "2"
			(uuid "91fa5d94-85d8-4792-9f94-f5d8bed2fa94")
		)
		(instances
			(project "misc-boards"
				(path "/5f58c02c-5144-4740-88b6-2b6add1f316a/00000000-0000-0000-0000-00005d89da36"
					(reference "D102")
					(unit 1)
				)
			)
		)
	)
	(symbol
		(lib_id "Connector:Conn_01x04_Pin")
		(at 139.7 40.64 180)
		(unit 1)
		(exclude_from_sim no)
		(in_bom yes)
		(on_board yes)
		(dnp no)
		(uuid "00000000-0000-0000-0000-00005d8a6868")
		(property "Reference" "P100"
			(at 138.43 45.72 0)
			(effects
				(font
					(size 1.27 1.27)
				)
			)
		)
		(property "Value" "LEDS"
			(at 140.97 39.37 90)
			(effects
				(font
					(size 1.27 1.27)
				)
			)
		)
		(property "Footprint" "Connector_Molex:Molex_KK-254_AE-6410-04A_1x04_P2.54mm_Vertical"
			(at 139.7 40.64 0)
			(effects
				(font
					(size 1.27 1.27)
				)
				(hide yes)
			)
		)
		(property "Datasheet" ""
			(at 139.7 40.64 0)
			(effects
				(font
					(size 1.27 1.27)
				)
				(hide yes)
			)
		)
		(property "Description" ""
			(at 139.7 40.64 0)
			(effects
				(font
					(size 1.27 1.27)
				)
				(hide yes)
			)
		)
		(pin "1"
			(uuid "be38a313-8c56-429c-bea0-dd3fab702911")
		)
		(pin "2"
			(uuid "cc36ddc8-7a95-4e6c-a047-c01eb17798f0")
		)
		(pin "3"
			(uuid "ec00122d-b425-404a-939a-e67e3550e9ad")
		)
		(pin "4"
			(uuid "07ca6b56-f568-4e05-b6eb-7d2e19e8bf66")
		)
		(instances
			(project "misc-boards"
				(path "/5f58c02c-5144-4740-88b6-2b6add1f316a/00000000-0000-0000-0000-00005d89da36"
					(reference "P100")
					(unit 1)
				)
			)
		)
	)
	(symbol
		(lib_id "Mechanical:MountingHole")
		(at 160.02 43.18 0)
		(unit 1)
		(exclude_from_sim no)
		(in_bom yes)
		(on_board yes)
		(dnp no)
		(uuid "00000000-0000-0000-0000-00005d8d304d")
		(property "Reference" "MK101"
			(at 160.02 38.1 0)
			(effects
				(font
					(size 1.27 1.27)
				)
			)
		)
		(property "Value" "Mounting_Hole"
			(at 160.02 40.005 0)
			(effects
				(font
					(size 1.27 1.27)
				)
			)
		)
		(property "Footprint" "MountingHole:MountingHole_3.2mm_M3"
			(at 160.02 43.18 0)
			(effects
				(font
					(size 1.27 1.27)
				)
				(hide yes)
			)
		)
		(property "Datasheet" "~"
			(at 160.02 43.18 0)
			(effects
				(font
					(size 1.27 1.27)
				)
				(hide yes)
			)
		)
		(property "Description" ""
			(at 160.02 43.18 0)
			(effects
				(font
					(size 1.27 1.27)
				)
				(hide yes)
			)
		)
		(instances
			(project "misc-boards"
				(path "/5f58c02c-5144-4740-88b6-2b6add1f316a/00000000-0000-0000-0000-00005d89da36"
					(reference "MK101")
					(unit 1)
				)
			)
		)
	)
	(symbol
		(lib_id "Mechanical:MountingHole")
		(at 175.26 43.18 0)
		(unit 1)
		(exclude_from_sim no)
		(in_bom yes)
		(on_board yes)
		(dnp no)
		(uuid "00000000-0000-0000-0000-00005d8d3054")
		(property "Reference" "MK102"
			(at 175.26 38.1 0)
			(effects
				(font
					(size 1.27 1.27)
				)
			)
		)
		(property "Value" "Mounting_Hole"
			(at 175.26 40.005 0)
			(effects
				(font
					(size 1.27 1.27)
				)
			)
		)
		(property "Footprint" "MountingHole:MountingHole_3.2mm_M3"
			(at 175.26 43.18 0)
			(effects
				(font
					(size 1.27 1.27)
				)
				(hide yes)
			)
		)
		(property "Datasheet" "~"
			(at 175.26 43.18 0)
			(effects
				(font
					(size 1.27 1.27)
				)
				(hide yes)
			)
		)
		(property "Description" ""
			(at 175.26 43.18 0)
			(effects
				(font
					(size 1.27 1.27)
				)
				(hide yes)
			)
		)
		(instances
			(project "misc-boards"
				(path "/5f58c02c-5144-4740-88b6-2b6add1f316a/00000000-0000-0000-0000-00005d89da36"
					(reference "MK102")
					(unit 1)
				)
			)
		)
	)
)
