(footprint "RotaryEncoder_Bourns_PEC11R-Switch_Vertical"
	(version 20240108)
	(generator "pcbnew")
	(generator_version "8.0")
	(layer "F.Cu")
	(descr "https://www.bourns.com/docs/product-datasheets/pec11r.pdf")
	(tags "Rotary encoder")
	(property "Reference" "REF**"
		(at 0 -8.2 0)
		(layer "F.SilkS")
		(uuid "968f2812-75a8-4c4e-8eaf-e835a489d72f")
		(effects
			(font
				(size 1 1)
				(thickness 0.15)
			)
		)
	)
	(property "Value" "RotaryEncoder_Bourns_PEC11R-Switch_Vertical"
		(at 0 8.2 0)
		(layer "F.Fab")
		(uuid "cf7644c7-866c-4bcb-bca4-d3da43082d84")
		(effects
			(font
				(size 1 1)
				(thickness 0.15)
			)
		)
	)
	(property "Footprint" "RotaryEncoder_Bourns_PEC11R-Switch_Vertical"
		(at 0 0 0)
		(unlocked yes)
		(layer "F.Fab")
		(hide yes)
		(uuid "e60b7b43-77b3-43b9-8695-170a361c9c3c")
		(effects
			(font
				(size 1.27 1.27)
			)
		)
	)
	(property "Datasheet" ""
		(at 0 0 0)
		(unlocked yes)
		(layer "F.Fab")
		(hide yes)
		(uuid "a2ae725d-4d65-4933-84d5-c7b7df3b893c")
		(effects
			(font
				(size 1.27 1.27)
			)
		)
	)
	(property "Description" ""
		(at 0 0 0)
		(unlocked yes)
		(layer "F.Fab")
		(hide yes)
		(uuid "d2a56ec1-39a9-4d6c-9b6c-c9d6f3d69fb1")
		(effects
			(font
				(size 1.27 1.27)
			)
		)
	)
	(attr through_hole)
	(fp_line
		(start -6.7 -6.25)
		(end -6.7 -3.2)
		(stroke
			(width 0.12)
			(type solid)
		)
		(layer "F.SilkS")
		(uuid "4b36c2e5-cf40-47c7-b38f-725034fb8ca6")
	)
	(fp_line
		(start -6.7 -6.25)
		(end -1.75 -6.25)
		(stroke
			(width 0.12)
			(type solid)
		)
		(layer "F.SilkS")
		(uuid "e84a6fe5-0cd3-434f-91b6-170ebf749f1b")
	)
	(fp_line
		(start -6.7 -1.8)
		(end -6.7 -0.7)
		(stroke
			(width 0.12)
			(type solid)
		)
		(layer "F.SilkS")
		(uuid "42486a91-d22d-4fee-ab5f-b5b4370bf610")
	)
	(fp_line
		(start -6.7 0.7)
		(end -6.7 1.8)
		(stroke
			(width 0.12)
			(type solid)
		)
		(layer "F.SilkS")
		(uuid "cc7b90b3-33a3-4856-9a4d-6c6f01145e33")
	)
	(fp_line
		(start -6.7 6.25)
		(end -6.7 3.2)
		(stroke
			(width 0.12)
			(type solid)
		)
		(layer "F.SilkS")
		(uuid "0840070b-20c8-487b-a948-b86bb4b7c612")
	)
	(fp_line
		(start -6.7 6.25)
		(end -1.75 6.25)
		(stroke
			(width 0.12)
			(type solid)
		)
		(layer "F.SilkS")
		(uuid "37540b90-3262-445c-9628-89da8f7fa2be")
	)
	(fp_line
		(start 1.75 -6.25)
		(end 6.7 -6.25)
		(stroke
			(width 0.12)
			(type solid)
		)
		(layer "F.SilkS")
		(uuid "76bd6953-808f-402c-af4c-8ff4810955f5")
	)
	(fp_line
		(start 1.75 6.25)
		(end 6.7 6.25)
		(stroke
			(width 0.12)
			(type solid)
		)
		(layer "F.SilkS")
		(uuid "234512f4-c8c9-43d3-a7ae-cea454b36e22")
	)
	(fp_line
		(start 6.7 -6.25)
		(end 6.7 -3.6)
		(stroke
			(width 0.12)
			(type solid)
		)
		(layer "F.SilkS")
		(uuid "4cf2b55c-ba9a-4f93-9d91-690e4f484d84")
	)
	(fp_line
		(start 6.7 1.4)
		(end 6.7 -1.4)
		(stroke
			(width 0.12)
			(type solid)
		)
		(layer "F.SilkS")
		(uuid "06ce96d8-d684-4f4e-b884-8be9e37af18f")
	)
	(fp_line
		(start 6.7 6.25)
		(end 6.7 3.6)
		(stroke
			(width 0.12)
			(type solid)
		)
		(layer "F.SilkS")
		(uuid "985abdba-8807-445f-a869-48acd63c2108")
	)
	(fp_line
		(start -8.62 -7.53)
		(end 8.12 -7.53)
		(stroke
			(width 0.05)
			(type solid)
		)
		(layer "F.CrtYd")
		(uuid "bd78e581-e446-41b8-8412-f72db4ac4cc8")
	)
	(fp_line
		(start -8.62 7.53)
		(end -8.62 -7.53)
		(stroke
			(width 0.05)
			(type solid)
		)
		(layer "F.CrtYd")
		(uuid "e05334a6-72e3-48f3-aba4-93cd5b684b05")
	)
	(fp_line
		(start 8.12 -7.53)
		(end 8.12 7.53)
		(stroke
			(width 0.05)
			(type solid)
		)
		(layer "F.CrtYd")
		(uuid "736bebc9-21fb-4489-90f5-e6c0457757db")
	)
	(fp_line
		(start 8.12 7.53)
		(end -8.62 7.53)
		(stroke
			(width 0.05)
			(type solid)
		)
		(layer "F.CrtYd")
		(uuid "c1cd9db1-9df6-4547-90bf-cab5359d4945")
	)
	(fp_line
		(start -6.7 -6.25)
		(end -1.75 -6.25)
		(stroke
			(width 0.1)
			(type solid)
		)
		(layer "F.Fab")
		(uuid "b1b46593-d01c-4965-86be-1df02df96b00")
	)
	(fp_line
		(start -6.7 -3.2)
		(end -6.7 -6.25)
		(stroke
			(width 0.1)
			(type solid)
		)
		(layer "F.Fab")
		(uuid "6954ceea-7930-49e3-a80f-efec246c3b69")
	)
	(fp_line
		(start -6.7 -1.8)
		(end -6.7 -0.7)
		(stroke
			(width 0.1)
			(type solid)
		)
		(layer "F.Fab")
		(uuid "34c34398-50a7-4e69-94b9-34201dfbb5ac")
	)
	(fp_line
		(start -6.7 0.7)
		(end -6.7 1.8)
		(stroke
			(width 0.1)
			(type solid)
		)
		(layer "F.Fab")
		(uuid "5795dbbd-af6e-418a-a08e-372f2c9ba1ca")
	)
	(fp_line
		(start -6.7 3.2)
		(end -6.7 6.25)
		(stroke
			(width 0.1)
			(type solid)
		)
		(layer "F.Fab")
		(uuid "8c435a37-b2ff-4c45-b38d-d942fa1ff345")
	)
	(fp_line
		(start -6.7 6.25)
		(end -1.75 6.25)
		(stroke
			(width 0.1)
			(type solid)
		)
		(layer "F.Fab")
		(uuid "6a64e2e1-f2f2-4bca-95ff-c01a2284dd82")
	)
	(fp_line
		(start 1.75 6.25)
		(end 6.7 6.25)
		(stroke
			(width 0.1)
			(type solid)
		)
		(layer "F.Fab")
		(uuid "0deeb558-4b88-44f0-b38e-4a406e69ee73")
	)
	(fp_line
		(start 6.7 -6.25)
		(end 1.75 -6.25)
		(stroke
			(width 0.1)
			(type solid)
		)
		(layer "F.Fab")
		(uuid "a268fdd6-f5ac-4609-b302-87e96eb8a86a")
	)
	(fp_line
		(start 6.7 -3.6)
		(end 6.7 -6.25)
		(stroke
			(width 0.1)
			(type solid)
		)
		(layer "F.Fab")
		(uuid "46193cb4-d79d-4f69-b469-f790726ce322")
	)
	(fp_line
		(start 6.7 1.4)
		(end 6.7 -1.4)
		(stroke
			(width 0.1)
			(type solid)
		)
		(layer "F.Fab")
		(uuid "a58ec9be-a8ed-4c9c-ac5a-4cfd44c37054")
	)
	(fp_line
		(start 6.7 6.25)
		(end 6.7 3.6)
		(stroke
			(width 0.1)
			(type solid)
		)
		(layer "F.Fab")
		(uuid "b46b24a9-ec72-4a4f-b14f-5a7a3fc04876")
	)
	(fp_text user "${REFERENCE}"
		(at 0 0 0)
		(layer "F.Fab")
		(uuid "9b9fc024-fef7-46f2-85c9-b85137d2aa64")
		(effects
			(font
				(size 1 1)
				(thickness 0.15)
			)
		)
	)
	(pad "" np_thru_hole circle
		(at 0 -5.7)
		(size 3.1622 3.1622)
		(drill 3.1622)
		(layers "*.Cu" "*.Mask")
		(uuid "691eb011-feba-4e6a-abfb-f3c6ce0b9b83")
	)
	(pad "" np_thru_hole circle
		(at 0 5.7)
		(size 3.1622 3.1622)
		(drill 3.1622)
		(layers "*.Cu" "*.Mask")
		(uuid "7009aa64-d322-4bf2-842d-3a3d5c9c5c84")
	)
	(pad "A" thru_hole circle
		(at -7.5 -2.5)
		(size 1.75 1.75)
		(drill 1)
		(layers "*.Cu" "*.Mask")
		(remove_unused_layers no)
		(uuid "a279a7aa-4b98-45ea-a6cc-fa3adddd57b3")
	)
	(pad "B" thru_hole circle
		(at -7.5 2.5)
		(size 1.75 1.75)
		(drill 1)
		(layers "*.Cu" "*.Mask")
		(remove_unused_layers no)
		(uuid "34c04712-3db1-49aa-9f43-f7b6960fc665")
	)
	(pad "C" thru_hole circle
		(at -7.5 0)
		(size 1.75 1.75)
		(drill 1)
		(layers "*.Cu" "*.Mask")
		(remove_unused_layers no)
		(uuid "b9d943a1-a437-4ff2-b78c-81f373b2b321")
	)
	(pad "S1" thru_hole circle
		(at 7 -2.5)
		(size 1.75 1.75)
		(drill 1)
		(layers "*.Cu" "*.Mask")
		(remove_unused_layers no)
		(uuid "3df2f0ef-1f0a-4e62-aa70-282223917100")
	)
	(pad "S2" thru_hole circle
		(at 7 2.5)
		(size 1.75 1.75)
		(drill 1)
		(layers "*.Cu" "*.Mask")
		(remove_unused_layers no)
		(uuid "73bc9c53-ee77-49ac-82f8-d20121c88d0f")
	)
)
