%TF.GenerationSoftware,KiCad,Pcbnew,7.0.11*%
%TF.CreationDate,2024-03-09T09:32:01+01:00*%
%TF.ProjectId,main-board-v3,6d61696e-2d62-46f6-9172-642d76332e6b,rev?*%
%TF.SameCoordinates,Original*%
%TF.FileFunction,Soldermask,Bot*%
%TF.FilePolarity,Negative*%
%FSLAX46Y46*%
G04 Gerber Fmt 4.6, Leading zero omitted, Abs format (unit mm)*
G04 Created by KiCad (PCBNEW 7.0.11) date 2024-03-09 09:32:01*
%MOMM*%
%LPD*%
G01*
G04 APERTURE LIST*
G04 Aperture macros list*
%AMRoundRect*
0 Rectangle with rounded corners*
0 $1 Rounding radius*
0 $2 $3 $4 $5 $6 $7 $8 $9 X,Y pos of 4 corners*
0 Add a 4 corners polygon primitive as box body*
4,1,4,$2,$3,$4,$5,$6,$7,$8,$9,$2,$3,0*
0 Add four circle primitives for the rounded corners*
1,1,$1+$1,$2,$3*
1,1,$1+$1,$4,$5*
1,1,$1+$1,$6,$7*
1,1,$1+$1,$8,$9*
0 Add four rect primitives between the rounded corners*
20,1,$1+$1,$2,$3,$4,$5,0*
20,1,$1+$1,$4,$5,$6,$7,0*
20,1,$1+$1,$6,$7,$8,$9,0*
20,1,$1+$1,$8,$9,$2,$3,0*%
G04 Aperture macros list end*
%ADD10C,1.000000*%
%ADD11C,3.200000*%
%ADD12R,1.700000X1.700000*%
%ADD13O,1.700000X1.700000*%
%ADD14RoundRect,0.250000X-0.620000X-0.845000X0.620000X-0.845000X0.620000X0.845000X-0.620000X0.845000X0*%
%ADD15O,1.740000X2.190000*%
%ADD16RoundRect,0.250000X0.845000X-0.620000X0.845000X0.620000X-0.845000X0.620000X-0.845000X-0.620000X0*%
%ADD17O,2.190000X1.740000*%
%ADD18R,1.600000X1.600000*%
%ADD19O,1.600000X1.600000*%
%ADD20RoundRect,0.250000X-0.845000X0.620000X-0.845000X-0.620000X0.845000X-0.620000X0.845000X0.620000X0*%
%ADD21RoundRect,0.250000X0.620000X0.845000X-0.620000X0.845000X-0.620000X-0.845000X0.620000X-0.845000X0*%
%ADD22R,1.500000X1.500000*%
%ADD23C,1.500000*%
%ADD24C,1.700000*%
G04 APERTURE END LIST*
D10*
%TO.C,TP12*%
X54610000Y-95250000D03*
%TD*%
%TO.C,TP11*%
X57785000Y-93980000D03*
%TD*%
%TO.C,TP10*%
X108585000Y-94615000D03*
%TD*%
%TO.C,TP9*%
X109855000Y-92710000D03*
%TD*%
%TO.C,TP8*%
X101600000Y-92456000D03*
%TD*%
%TO.C,TP7*%
X104394000Y-98806000D03*
%TD*%
%TO.C,TP6*%
X73025000Y-77089000D03*
%TD*%
%TO.C,TP5*%
X99060000Y-80010000D03*
%TD*%
%TO.C,TP4*%
X90170000Y-71120000D03*
%TD*%
%TO.C,TP3*%
X70866000Y-72390000D03*
%TD*%
%TO.C,TP2*%
X71882000Y-59055000D03*
%TD*%
%TO.C,TP1*%
X69977000Y-74930000D03*
%TD*%
D11*
%TO.C,H1*%
X53000000Y-53000000D03*
%TD*%
D12*
%TO.C,J3*%
X54610000Y-121920000D03*
D13*
X57150000Y-121920000D03*
X54610000Y-124460000D03*
X57150000Y-124460000D03*
X54610000Y-127000000D03*
X57150000Y-127000000D03*
X54610000Y-129540000D03*
X57150000Y-129540000D03*
X54610000Y-132080000D03*
X57150000Y-132080000D03*
X54610000Y-134620000D03*
X57150000Y-134620000D03*
X54610000Y-137160000D03*
X57150000Y-137160000D03*
X54610000Y-139700000D03*
X57150000Y-139700000D03*
%TD*%
D14*
%TO.C,J8*%
X82550000Y-54610000D03*
D15*
X85090000Y-54610000D03*
X87630000Y-54610000D03*
%TD*%
D11*
%TO.C,H2*%
X112000000Y-53000000D03*
%TD*%
D14*
%TO.C,J7*%
X91440000Y-54610000D03*
D15*
X93980000Y-54610000D03*
X96520000Y-54610000D03*
%TD*%
D16*
%TO.C,J12*%
X111125000Y-67310000D03*
D17*
X111125000Y-64770000D03*
X111125000Y-62230000D03*
X111125000Y-59690000D03*
%TD*%
D18*
%TO.C,RN2*%
X60960000Y-123190000D03*
D19*
X60960000Y-125730000D03*
X60960000Y-128270000D03*
X60960000Y-130810000D03*
X60960000Y-133350000D03*
X60960000Y-135890000D03*
X60960000Y-138430000D03*
X60960000Y-140970000D03*
X60960000Y-143510000D03*
%TD*%
D12*
%TO.C,J2*%
X109220000Y-139700000D03*
D13*
X106680000Y-139700000D03*
X109220000Y-137160000D03*
X106680000Y-137160000D03*
X109220000Y-134620000D03*
X106680000Y-134620000D03*
X109220000Y-132080000D03*
X106680000Y-132080000D03*
%TD*%
D20*
%TO.C,J9*%
X55880000Y-99060000D03*
D17*
X55880000Y-101600000D03*
X55880000Y-104140000D03*
X55880000Y-106680000D03*
%TD*%
D11*
%TO.C,H4*%
X112000000Y-147000000D03*
%TD*%
D20*
%TO.C,J10*%
X55880000Y-110490000D03*
D17*
X55880000Y-113030000D03*
X55880000Y-115570000D03*
X55880000Y-118110000D03*
%TD*%
D21*
%TO.C,J5*%
X67310000Y-54610000D03*
D15*
X64770000Y-54610000D03*
X62230000Y-54610000D03*
X59690000Y-54610000D03*
%TD*%
D22*
%TO.C,Q2*%
X60960000Y-64770000D03*
D23*
X60960000Y-67310000D03*
X60960000Y-69850000D03*
%TD*%
D12*
%TO.C,J1*%
X58420000Y-87630000D03*
D24*
X58420000Y-85090000D03*
X60960000Y-87630000D03*
X60960000Y-85090000D03*
X63500000Y-87630000D03*
X63500000Y-85090000D03*
X66040000Y-87630000D03*
X66040000Y-85090000D03*
X68580000Y-87630000D03*
X68580000Y-85090000D03*
X71120000Y-87630000D03*
X71120000Y-85090000D03*
X73660000Y-87630000D03*
X73660000Y-85090000D03*
X76200000Y-87630000D03*
X76200000Y-85090000D03*
X78740000Y-87630000D03*
X78740000Y-85090000D03*
X81280000Y-87630000D03*
X81280000Y-85090000D03*
X83820000Y-87630000D03*
X83820000Y-85090000D03*
X86360000Y-87630000D03*
X86360000Y-85090000D03*
X88900000Y-87630000D03*
X88900000Y-85090000D03*
X91440000Y-87630000D03*
X91440000Y-85090000D03*
X93980000Y-87630000D03*
X93980000Y-85090000D03*
X96520000Y-87630000D03*
X96520000Y-85090000D03*
X99060000Y-87630000D03*
X99060000Y-85090000D03*
X101600000Y-87630000D03*
X101600000Y-85090000D03*
X104140000Y-87630000D03*
X104140000Y-85090000D03*
X106680000Y-87630000D03*
X106680000Y-85090000D03*
%TD*%
D18*
%TO.C,RN3*%
X60960000Y-119380000D03*
D19*
X60960000Y-116840000D03*
X60960000Y-114300000D03*
X60960000Y-111760000D03*
X60960000Y-109220000D03*
X60960000Y-106680000D03*
X60960000Y-104140000D03*
X60960000Y-101600000D03*
X60960000Y-99060000D03*
%TD*%
D21*
%TO.C,J13*%
X100330000Y-62865000D03*
D15*
X97790000Y-62865000D03*
X95250000Y-62865000D03*
X92710000Y-62865000D03*
%TD*%
D22*
%TO.C,Q3*%
X66040000Y-64770000D03*
D23*
X66040000Y-67310000D03*
X66040000Y-69850000D03*
%TD*%
D22*
%TO.C,Q1*%
X55880000Y-64770000D03*
D23*
X55880000Y-67310000D03*
X55880000Y-69850000D03*
%TD*%
D14*
%TO.C,J6*%
X100330000Y-54610000D03*
D15*
X102870000Y-54610000D03*
X105410000Y-54610000D03*
%TD*%
D18*
%TO.C,RN1*%
X102235000Y-124460000D03*
D19*
X102235000Y-127000000D03*
X102235000Y-129540000D03*
X102235000Y-132080000D03*
X102235000Y-134620000D03*
X102235000Y-137160000D03*
X102235000Y-139700000D03*
X102235000Y-142240000D03*
X102235000Y-144780000D03*
%TD*%
D12*
%TO.C,J16*%
X78740000Y-53340000D03*
D13*
X78740000Y-55880000D03*
X76200000Y-53340000D03*
X76200000Y-55880000D03*
X73660000Y-53340000D03*
X73660000Y-55880000D03*
X71120000Y-53340000D03*
X71120000Y-55880000D03*
%TD*%
D12*
%TO.C,J4*%
X107315000Y-97790000D03*
D13*
X107315000Y-100330000D03*
X107315000Y-102870000D03*
X107315000Y-105410000D03*
X107315000Y-107950000D03*
X107315000Y-110490000D03*
X107315000Y-113030000D03*
X107315000Y-115570000D03*
X107315000Y-118110000D03*
X107315000Y-120650000D03*
%TD*%
D16*
%TO.C,J11*%
X111125000Y-78740000D03*
D17*
X111125000Y-76200000D03*
X111125000Y-73660000D03*
X111125000Y-71120000D03*
%TD*%
D11*
%TO.C,H3*%
X53000000Y-147000000D03*
%TD*%
M02*
